%YAML 1.1
%TAG !u! tag:unity3d.com,2011:
--- !u!114 &11400000
MonoBehaviour:
  m_ObjectHideFlags: 0
  m_CorrespondingSourceObject: {fileID: 0}
  m_PrefabInternal: {fileID: 0}
  m_GameObject: {fileID: 0}
  m_Enabled: 0
  m_EditorHideFlags: 0
  m_Script: {fileID: 11500000, guid: 007223efca87e1544b1e929ea9ad34c4, type: 3}
  m_Name: UserData
  m_EditorClassIdentifier: 
  _textContents:
  - Id: 11
    Content: dbnickname1
  - Id: 22
    Content: dbnickname2
  _imageContents:
  - Id: 11
    Content: {fileID: 2800000, guid: 285c2a0daddd9d346b44c0d8a3bdb6ca, type: 3}
  - Id: 22
    Content: {fileID: 2800000, guid: cb0531e5f3b07074bbbea52f40720cfd, type: 3}
  - Id: 33
    Content: {fileID: 2800000, guid: 2da01686ca0fdf042bb702a929067a52, type: 3}
  - Id: 44
    Content: {fileID: 2800000, guid: f4c2d7b14d011064e98f129d58458386, type: 3}
  - Id: 55
    Content: {fileID: 2800000, guid: ef978b1c12ac0144ea97d077f7e36481, type: 3}
  avatar: {fileID: 2800000, guid: 285c2a0daddd9d346b44c0d8a3bdb6ca, type: 3}
